%YAML 1.1
%TAG !u! tag:unity3d.com,2011:
--- !u!114 &11400000
MonoBehaviour:
  m_ObjectHideFlags: 0
  m_PrefabParentObject: {fileID: 0}
  m_PrefabInternal: {fileID: 0}
  m_GameObject: {fileID: 0}
  m_Enabled: 1
  m_EditorHideFlags: 0
  m_Script: {fileID: 11500000, guid: 8098aca96e9afd44188717b309e36b95, type: 3}
  m_Name: Dog
  m_EditorClassIdentifier: 
  items:
  - breedname: 0
    petCategory: 3
    petName: Beagle
    isOwned: 0
    skeleton: {fileID: 11400000, guid: ef0d7f151a5b540b9842b9f809710b29, type: 2}
    colliderSize: {x: 6.275919, y: 6.6808724}
    colliderOffset: {x: 1.031881, y: 3.1885889}
    bubblePosition:
    - {x: -0.64, y: 5.23, z: 0}
    - {x: 0.55, y: 0.83, z: 0}
    - {x: 1.41, y: 2.33, z: 0}
    - {x: 1.27, y: 1.68, z: 0}
    - {x: -1.34, y: 1, z: 0}
    - {x: -0.43, y: 2.41, z: 0}
    - {x: 0.64, y: 3.33, z: 0}
    - {x: 2.24, y: 3.39, z: 0}
    - {x: 1.26, y: 5.82, z: 0}
    - {x: -1.35, y: 2.83, z: 0}
    - {x: 3.07, y: 5.34, z: 0}
    thoughtBubblePos: {x: 1.86, y: 7.68, z: 0}
  - breedname: 1
    petCategory: 2
    petName: Golden Retriever
    isOwned: 0
    skeleton: {fileID: 11400000, guid: 631fb14a5e808426695f5f8575911fcb, type: 2}
    colliderSize: {x: 5.284935, y: 6.6808724}
    colliderOffset: {x: 0.15524256, y: 3.1885889}
    bubblePosition:
    - {x: -0.86, y: 0.77, z: 0}
    - {x: -1.04, y: 2.03, z: 0}
    - {x: -1.78, y: 5.5, z: 0}
    - {x: 0.02, y: 2.09, z: 0}
    - {x: -0.84, y: 3.09, z: 0}
    - {x: 0.94, y: 3.12, z: 0}
    - {x: 1.6, y: 5.59, z: 0}
    - {x: 0.94, y: 0.77, z: 0}
    - {x: -0.7, y: 5.53, z: 0}
    - {x: 0.79, y: 5.47, z: 0}
    - {x: 1.17, y: 1.95, z: 0}
    thoughtBubblePos: {x: 0.61, y: 7.74, z: 0}
  - breedname: 2
    petCategory: 2
    petName: Husky
    isOwned: 0
    skeleton: {fileID: 11400000, guid: fbfc3d9847c524d989ea0cef61e5650c, type: 2}
    colliderSize: {x: 6.275919, y: 6.6808724}
    colliderOffset: {x: 1.031881, y: 3.1885889}
    bubblePosition:
    - {x: -1.21, y: 6.18, z: 0}
    - {x: 1.85, y: 1.14, z: 0}
    - {x: -0.73, y: 2.9, z: 0}
    - {x: 0.13, y: 3.7, z: 0}
    - {x: -1.34, y: 1, z: 0}
    - {x: 0.1, y: 2.6, z: 0}
    - {x: 0.18, y: 3.83, z: 0}
    - {x: 1.17, y: 2.89, z: 0}
    - {x: 0.08, y: 7.15, z: 0}
    - {x: 0.1, y: 0.92, z: 0}
    - {x: 1.39, y: 6.03, z: 0}
    thoughtBubblePos: {x: 0.67, y: 8.77, z: 0}
  - breedname: 3
    petCategory: 3
    petName: Pug
    isOwned: 0
    skeleton: {fileID: 11400000, guid: d9354273b9aeb46799af9e83add96177, type: 2}
    colliderSize: {x: 4.7123146, y: 5.422362}
    colliderOffset: {x: 0.059395313, y: 2.4449232}
    bubblePosition:
    - {x: 1.54, y: 4.08, z: 0}
    - {x: 0.82, y: 1.33, z: 0}
    - {x: -1.15, y: 2.59, z: 0}
    - {x: -1.36, y: 0.42, z: 0}
    - {x: -0.88, y: 1.31, z: 0}
    - {x: 0.18, y: 0.43, z: 0}
    - {x: 0.1, y: 2.23, z: 0}
    - {x: 1.32, y: 2.66, z: 0}
    - {x: 0.12, y: 4.52, z: 0}
    - {x: 1.32, y: 0.54, z: 0}
    - {x: -1.58, y: 4.24, z: 0}
    thoughtBubblePos: {x: 0.71, y: 6.39, z: 0}
  - breedname: 11
    petCategory: 2
    petName: Rottweiler
    isOwned: 0
    skeleton: {fileID: 11400000, guid: 499cb37367cd746f49eed5e5415ae5d0, type: 2}
    colliderSize: {x: 4.915495, y: 5.976621}
    colliderOffset: {x: -0.042194843, y: 2.7672036}
    bubblePosition:
    - {x: -1.22, y: 5.2, z: 0}
    - {x: 0.54, y: 1.2, z: 0}
    - {x: -0.89, y: 1.17, z: 0}
    - {x: 2.06, y: 0.81, z: 0}
    - {x: 0.35, y: 2.3, z: 0}
    - {x: 1.25, y: 2.4, z: 0}
    - {x: -1.66, y: 3.13, z: 0}
    - {x: -0.74, y: 2.55, z: 0}
    - {x: 0.38, y: 4.76, z: 0}
    - {x: 1.32, y: 1.64, z: 0}
    - {x: 0.35, y: 3.1, z: 0}
    thoughtBubblePos: {x: 0.08, y: 6.82, z: 0}
  - breedname: 4
    petCategory: 3
    petName: Yorkie
    isOwned: 0
    skeleton: {fileID: 11400000, guid: c5983e3b3e53149ab96a320cf42dc183, type: 2}
    colliderSize: {x: 4.2589273, y: 7.0490155}
    colliderOffset: {x: 0.24231774, y: 3.2377431}
    bubblePosition:
    - {x: 1.41, y: 6.06, z: 0}
    - {x: 1.3, y: 0.44, z: 0}
    - {x: 1.25, y: 3.93, z: 0}
    - {x: 0.39, y: 5.45, z: 0}
    - {x: -1.44, y: 2.13, z: 0}
    - {x: -1.05, y: 6.06, z: 0}
    - {x: 0.4, y: 3.01, z: 0}
    - {x: -0.84, y: 0.55, z: 0}
    - {x: 1.17, y: 1.82, z: 0}
    - {x: -1.05, y: 3.73, z: 0}
    thoughtBubblePos: {x: 1.21, y: 7.71, z: 0}
  - breedname: 5
    petCategory: 2
    petName: Chow Chow
    isOwned: 0
    skeleton: {fileID: 11400000, guid: a578a13a1ce6b4f388f4e4406ad95512, type: 2}
    colliderSize: {x: 5.164915, y: 7.4885726}
    colliderOffset: {x: 0.15171957, y: 3.6991189}
    bubblePosition:
    - {x: -0.08, y: 6.57, z: 0}
    - {x: -1.13, y: 6.16, z: 0}
    - {x: 1.37, y: 2.65, z: 0}
    - {x: -1.22, y: 2.66, z: 0}
    - {x: 2.54, y: 1.47, z: 0}
    - {x: -1.47, y: 0.94, z: 0}
    - {x: 1.17, y: 1.06, z: 0}
    - {x: -1.51, y: 3.99, z: 0}
    - {x: 0.14, y: 3.03, z: 0}
    - {x: 1.41, y: 6.13, z: 0}
    - {x: -0.1, y: 1.66, z: 0}
    - {x: 1.93, y: 4.13, z: 0}
    thoughtBubblePos: {x: 0.77, y: 8.55, z: 0}
  - breedname: 7
    petCategory: 3
    petName: Poodle
    isOwned: 0
    skeleton: {fileID: 11400000, guid: 3746a5950480249cca1d781774772aa1, type: 2}
    colliderSize: {x: 3.92281, y: 6.1185937}
    colliderOffset: {x: 0.031515837, y: 2.833824}
    bubblePosition:
    - {x: 0.82, y: 4.79, z: 0}
    - {x: 0.77, y: 2.15, z: 0}
    - {x: -0.94, y: 2.1, z: 0}
    - {x: -0.88, y: 0.87, z: 0}
    - {x: -0.42, y: 0.28, z: 0}
    - {x: 0.51, y: 0.31, z: 0}
    - {x: 1.07, y: 0.81, z: 0}
    - {x: 1.51, y: 3.15, z: 0}
    - {x: -1.07, y: 4.68, z: 0}
    - {x: 0.04, y: 1.5, z: 0}
    - {x: -1.35, y: 3.16, z: 0}
    thoughtBubblePos: {x: 0.75, y: 6.76, z: 0}
  - breedname: 9
    petCategory: 3
    petName: Corgi
    isOwned: 0
    skeleton: {fileID: 11400000, guid: 586400b02a1234b54aa7568aecfc87a1, type: 2}
    colliderSize: {x: 4.3919444, y: 5.217856}
    colliderOffset: {x: 0.41620564, y: 2.4397514}
    bubblePosition:
    - {x: 1.51, y: 4.02, z: 0}
    - {x: 1.3, y: 1.46, z: 0}
    - {x: -1.03, y: 1.84, z: 0}
    - {x: 1.02, y: 0.72, z: 0}
    - {x: 0.35, y: 4.15, z: 0}
    - {x: 0.51, y: 0.31, z: 0}
    - {x: 0.04, y: 1.43, z: 0}
    - {x: 1.57, y: 2.4, z: 0}
    - {x: -0.71, y: 4.1, z: 0}
    - {x: -0.86, y: 0.71, z: 0}
    - {x: -0.66, y: 2.47, z: 0}
    thoughtBubblePos: {x: 1.13, y: 5.49, z: 0}
  - breedname: 8
    petCategory: 2
    petName: Akita
    isOwned: 0
    skeleton: {fileID: 11400000, guid: 3c19040b57def4dc09a4d8de8c0f876c, type: 2}
    colliderSize: {x: 3.6989565, y: 7.1469865}
    colliderOffset: {x: -0.0052053332, y: 3.4043167}
    bubblePosition:
    - {x: 1.44, y: 6.1, z: 0}
    - {x: 1.15, y: 2.86, z: 0}
    - {x: -0.92, y: 2.81, z: 0}
    - {x: 1.19, y: 1.38, z: 0}
    - {x: 0.44, y: 3.53, z: 0}
    - {x: 0.15, y: 1.58, z: 0}
    - {x: 0.06, y: 2.82, z: 0}
    - {x: 1.46, y: 3.99, z: 0}
    - {x: -0.84, y: 5.97, z: 0}
    - {x: -1.07, y: 1.27, z: 0}
    - {x: -0.88, y: 4.04, z: 0}
    thoughtBubblePos: {x: 0.79, y: 7.36, z: 0}
