%YAML 1.1
%TAG !u! tag:unity3d.com,2011:
--- !u!114 &11400000
MonoBehaviour:
  m_ObjectHideFlags: 0
  m_PrefabParentObject: {fileID: 0}
  m_PrefabInternal: {fileID: 0}
  m_GameObject: {fileID: 0}
  m_Enabled: 1
  m_EditorHideFlags: 0
  m_Script: {fileID: 11500000, guid: a6b194f808b1af6499c93410e504af42, type: 3}
  m_Name: Chow chow_Atlas
  m_EditorClassIdentifier: 
  atlasFile: {fileID: 4900000, guid: 2f3fdb36ec579466fbd3b5a32c97b3e9, type: 3}
  materials:
  - {fileID: 2100000, guid: 3588288b6addd4cdc831069f4a76bbc0, type: 2}
