%YAML 1.1
%TAG !u! tag:unity3d.com,2011:
--- !u!114 &11400000
MonoBehaviour:
  m_ObjectHideFlags: 0
  m_PrefabParentObject: {fileID: 0}
  m_PrefabInternal: {fileID: 0}
  m_GameObject: {fileID: 0}
  m_Enabled: 1
  m_EditorHideFlags: 0
  m_Script: {fileID: 11500000, guid: a6b194f808b1af6499c93410e504af42, type: 3}
  m_Name: Akita_Atlas
  m_EditorClassIdentifier: 
  atlasFile: {fileID: 4900000, guid: 30697c64b45b9469f9a1439af32c05bf, type: 3}
  materials:
  - {fileID: 2100000, guid: 7bc68974ee36d46ca8cd0d071082169d, type: 2}
