%YAML 1.1
%TAG !u! tag:unity3d.com,2011:
--- !u!114 &11400000
MonoBehaviour:
  m_ObjectHideFlags: 0
  m_PrefabParentObject: {fileID: 0}
  m_PrefabInternal: {fileID: 0}
  m_GameObject: {fileID: 0}
  m_Enabled: 1
  m_EditorHideFlags: 0
  m_Script: {fileID: 11500000, guid: a6b194f808b1af6499c93410e504af42, type: 3}
  m_Name: Husky_Atlas
  m_EditorClassIdentifier: 
  atlasFile: {fileID: 4900000, guid: 63f217e4cc8894fd5942d59d0cf83957, type: 3}
  materials:
  - {fileID: 2100000, guid: ac41068e6e0744482838b7dae337cdb3, type: 2}
