%YAML 1.1
%TAG !u! tag:unity3d.com,2011:
--- !u!114 &11400000
MonoBehaviour:
  m_ObjectHideFlags: 0
  m_PrefabParentObject: {fileID: 0}
  m_PrefabInternal: {fileID: 0}
  m_GameObject: {fileID: 0}
  m_Enabled: 1
  m_EditorHideFlags: 0
  m_Script: {fileID: 11500000, guid: a6b194f808b1af6499c93410e504af42, type: 3}
  m_Name: himalayan_Atlas
  m_EditorClassIdentifier: 
  atlasFile: {fileID: 4900000, guid: 68bd867e1382a4d788fecc583d7aef72, type: 3}
  materials:
  - {fileID: 2100000, guid: 2e670a57da6f44b33a0ceef9fff02c9b, type: 2}
  - {fileID: 2100000, guid: e3792c10df0844fec8f2379abc744556, type: 2}
