%YAML 1.1
%TAG !u! tag:unity3d.com,2011:
--- !u!114 &11400000
MonoBehaviour:
  m_ObjectHideFlags: 0
  m_PrefabParentObject: {fileID: 0}
  m_PrefabInternal: {fileID: 0}
  m_GameObject: {fileID: 0}
  m_Enabled: 1
  m_EditorHideFlags: 0
  m_Script: {fileID: 11500000, guid: a6b194f808b1af6499c93410e504af42, type: 3}
  m_Name: Beagle_Atlas
  m_EditorClassIdentifier: 
  atlasFile: {fileID: 4900000, guid: fc24a7a535e434fb286d67f671ad2005, type: 3}
  materials:
  - {fileID: 2100000, guid: 61da6df0468d540e48c0044d4ff3c28c, type: 2}
