%YAML 1.1
%TAG !u! tag:unity3d.com,2011:
--- !u!114 &11400000
MonoBehaviour:
  m_ObjectHideFlags: 0
  m_PrefabParentObject: {fileID: 0}
  m_PrefabInternal: {fileID: 0}
  m_GameObject: {fileID: 0}
  m_Enabled: 1
  m_EditorHideFlags: 0
  m_Script: {fileID: 11500000, guid: a6b194f808b1af6499c93410e504af42, type: 3}
  m_Name: ragdoll_Atlas
  m_EditorClassIdentifier: 
  atlasFile: {fileID: 4900000, guid: 212399a1fdba145279210069e06a0fac, type: 3}
  materials:
  - {fileID: 2100000, guid: 32b7d3a48ce8e4ef585e5184c28d987d, type: 2}
  - {fileID: 2100000, guid: b3cd8e30a2b884b38a55e7c21a23b08b, type: 2}
