%YAML 1.1
%TAG !u! tag:unity3d.com,2011:
--- !u!114 &11400000
MonoBehaviour:
  m_ObjectHideFlags: 0
  m_PrefabParentObject: {fileID: 0}
  m_PrefabInternal: {fileID: 0}
  m_GameObject: {fileID: 0}
  m_Enabled: 1
  m_EditorHideFlags: 0
  m_Script: {fileID: 11500000, guid: 48349706f3145428682e5056c814b1bf, type: 3}
  m_Name: PetCategoryIcon
  m_EditorClassIdentifier: 
  item:
  - petBreed: Beagle
    none: {fileID: 21300110, guid: 3dd47e956f5264be6a23058064bd5c1d, type: 3}
    work: {fileID: 21300116, guid: 3dd47e956f5264be6a23058064bd5c1d, type: 3}
    school: {fileID: 21300114, guid: 3dd47e956f5264be6a23058064bd5c1d, type: 3}
    workOut: {fileID: 21300118, guid: 3dd47e956f5264be6a23058064bd5c1d, type: 3}
    play: {fileID: 21300112, guid: 3dd47e956f5264be6a23058064bd5c1d, type: 3}
  - petBreed: Golden_Retriever
    none: {fileID: 21300140, guid: 3dd47e956f5264be6a23058064bd5c1d, type: 3}
    work: {fileID: 21300146, guid: 3dd47e956f5264be6a23058064bd5c1d, type: 3}
    school: {fileID: 21300144, guid: 3dd47e956f5264be6a23058064bd5c1d, type: 3}
    workOut: {fileID: 21300148, guid: 3dd47e956f5264be6a23058064bd5c1d, type: 3}
    play: {fileID: 21300142, guid: 3dd47e956f5264be6a23058064bd5c1d, type: 3}
  - petBreed: Husky
    none: {fileID: 21300150, guid: 3dd47e956f5264be6a23058064bd5c1d, type: 3}
    work: {fileID: 21300156, guid: 3dd47e956f5264be6a23058064bd5c1d, type: 3}
    school: {fileID: 21300154, guid: 3dd47e956f5264be6a23058064bd5c1d, type: 3}
    workOut: {fileID: 21300158, guid: 3dd47e956f5264be6a23058064bd5c1d, type: 3}
    play: {fileID: 21300152, guid: 3dd47e956f5264be6a23058064bd5c1d, type: 3}
  - petBreed: Pug
    none: {fileID: 21300170, guid: 3dd47e956f5264be6a23058064bd5c1d, type: 3}
    work: {fileID: 21300176, guid: 3dd47e956f5264be6a23058064bd5c1d, type: 3}
    school: {fileID: 21300174, guid: 3dd47e956f5264be6a23058064bd5c1d, type: 3}
    workOut: {fileID: 21300178, guid: 3dd47e956f5264be6a23058064bd5c1d, type: 3}
    play: {fileID: 21300172, guid: 3dd47e956f5264be6a23058064bd5c1d, type: 3}
  - petBreed: Yorkie
    none: {fileID: 21300190, guid: 3dd47e956f5264be6a23058064bd5c1d, type: 3}
    work: {fileID: 21300196, guid: 3dd47e956f5264be6a23058064bd5c1d, type: 3}
    school: {fileID: 21300194, guid: 3dd47e956f5264be6a23058064bd5c1d, type: 3}
    workOut: {fileID: 21300198, guid: 3dd47e956f5264be6a23058064bd5c1d, type: 3}
    play: {fileID: 21300192, guid: 3dd47e956f5264be6a23058064bd5c1d, type: 3}
  - petBreed: Chow_Chow
    none: {fileID: 21300120, guid: 3dd47e956f5264be6a23058064bd5c1d, type: 3}
    work: {fileID: 21300128, guid: 3dd47e956f5264be6a23058064bd5c1d, type: 3}
    school: {fileID: 21300126, guid: 3dd47e956f5264be6a23058064bd5c1d, type: 3}
    workOut: {fileID: 21300122, guid: 3dd47e956f5264be6a23058064bd5c1d, type: 3}
    play: {fileID: 21300124, guid: 3dd47e956f5264be6a23058064bd5c1d, type: 3}
  - petBreed: Poodle
    none: {fileID: 21300160, guid: 3dd47e956f5264be6a23058064bd5c1d, type: 3}
    work: {fileID: 21300166, guid: 3dd47e956f5264be6a23058064bd5c1d, type: 3}
    school: {fileID: 21300164, guid: 3dd47e956f5264be6a23058064bd5c1d, type: 3}
    workOut: {fileID: 21300168, guid: 3dd47e956f5264be6a23058064bd5c1d, type: 3}
    play: {fileID: 21300162, guid: 3dd47e956f5264be6a23058064bd5c1d, type: 3}
  - petBreed: Akita
    none: {fileID: 21300100, guid: 3dd47e956f5264be6a23058064bd5c1d, type: 3}
    work: {fileID: 21300106, guid: 3dd47e956f5264be6a23058064bd5c1d, type: 3}
    school: {fileID: 21300104, guid: 3dd47e956f5264be6a23058064bd5c1d, type: 3}
    workOut: {fileID: 21300108, guid: 3dd47e956f5264be6a23058064bd5c1d, type: 3}
    play: {fileID: 21300102, guid: 3dd47e956f5264be6a23058064bd5c1d, type: 3}
  - petBreed: Corgi
    none: {fileID: 21300130, guid: 3dd47e956f5264be6a23058064bd5c1d, type: 3}
    work: {fileID: 21300136, guid: 3dd47e956f5264be6a23058064bd5c1d, type: 3}
    school: {fileID: 21300134, guid: 3dd47e956f5264be6a23058064bd5c1d, type: 3}
    workOut: {fileID: 21300138, guid: 3dd47e956f5264be6a23058064bd5c1d, type: 3}
    play: {fileID: 21300132, guid: 3dd47e956f5264be6a23058064bd5c1d, type: 3}
  - petBreed: Rottweiler
    none: {fileID: 21300180, guid: 3dd47e956f5264be6a23058064bd5c1d, type: 3}
    work: {fileID: 21300186, guid: 3dd47e956f5264be6a23058064bd5c1d, type: 3}
    school: {fileID: 21300184, guid: 3dd47e956f5264be6a23058064bd5c1d, type: 3}
    workOut: {fileID: 21300188, guid: 3dd47e956f5264be6a23058064bd5c1d, type: 3}
    play: {fileID: 21300182, guid: 3dd47e956f5264be6a23058064bd5c1d, type: 3}
  - petBreed: Abyssinian
    none: {fileID: 21300008, guid: 3dd47e956f5264be6a23058064bd5c1d, type: 3}
    work: {fileID: 21300014, guid: 3dd47e956f5264be6a23058064bd5c1d, type: 3}
    school: {fileID: 21300012, guid: 3dd47e956f5264be6a23058064bd5c1d, type: 3}
    workOut: {fileID: 21300016, guid: 3dd47e956f5264be6a23058064bd5c1d, type: 3}
    play: {fileID: 21300010, guid: 3dd47e956f5264be6a23058064bd5c1d, type: 3}
  - petBreed: Persian
    none: {fileID: 21300060, guid: 3dd47e956f5264be6a23058064bd5c1d, type: 3}
    work: {fileID: 21300066, guid: 3dd47e956f5264be6a23058064bd5c1d, type: 3}
    school: {fileID: 21300064, guid: 3dd47e956f5264be6a23058064bd5c1d, type: 3}
    workOut: {fileID: 21300068, guid: 3dd47e956f5264be6a23058064bd5c1d, type: 3}
    play: {fileID: 21300062, guid: 3dd47e956f5264be6a23058064bd5c1d, type: 3}
  - petBreed: Siamese
    none: {fileID: 21300080, guid: 3dd47e956f5264be6a23058064bd5c1d, type: 3}
    work: {fileID: 21300086, guid: 3dd47e956f5264be6a23058064bd5c1d, type: 3}
    school: {fileID: 21300084, guid: 3dd47e956f5264be6a23058064bd5c1d, type: 3}
    workOut: {fileID: 21300088, guid: 3dd47e956f5264be6a23058064bd5c1d, type: 3}
    play: {fileID: 21300082, guid: 3dd47e956f5264be6a23058064bd5c1d, type: 3}
  - petBreed: Maine_Coon
    none: {fileID: 21300040, guid: 3dd47e956f5264be6a23058064bd5c1d, type: 3}
    work: {fileID: 21300046, guid: 3dd47e956f5264be6a23058064bd5c1d, type: 3}
    school: {fileID: 21300044, guid: 3dd47e956f5264be6a23058064bd5c1d, type: 3}
    workOut: {fileID: 21300048, guid: 3dd47e956f5264be6a23058064bd5c1d, type: 3}
    play: {fileID: 21300042, guid: 3dd47e956f5264be6a23058064bd5c1d, type: 3}
  - petBreed: Bengal
    none: {fileID: 21300018, guid: 3dd47e956f5264be6a23058064bd5c1d, type: 3}
    work: {fileID: 21300004, guid: 3dd47e956f5264be6a23058064bd5c1d, type: 3}
    school: {fileID: 21300002, guid: 3dd47e956f5264be6a23058064bd5c1d, type: 3}
    workOut: {fileID: 21300006, guid: 3dd47e956f5264be6a23058064bd5c1d, type: 3}
    play: {fileID: 21300000, guid: 3dd47e956f5264be6a23058064bd5c1d, type: 3}
  - petBreed: Sphynx
    none: {fileID: 21300090, guid: 3dd47e956f5264be6a23058064bd5c1d, type: 3}
    work: {fileID: 21300096, guid: 3dd47e956f5264be6a23058064bd5c1d, type: 3}
    school: {fileID: 21300094, guid: 3dd47e956f5264be6a23058064bd5c1d, type: 3}
    workOut: {fileID: 21300098, guid: 3dd47e956f5264be6a23058064bd5c1d, type: 3}
    play: {fileID: 21300092, guid: 3dd47e956f5264be6a23058064bd5c1d, type: 3}
  - petBreed: Himalayan
    none: {fileID: 21300030, guid: 3dd47e956f5264be6a23058064bd5c1d, type: 3}
    work: {fileID: 21300036, guid: 3dd47e956f5264be6a23058064bd5c1d, type: 3}
    school: {fileID: 21300034, guid: 3dd47e956f5264be6a23058064bd5c1d, type: 3}
    workOut: {fileID: 21300038, guid: 3dd47e956f5264be6a23058064bd5c1d, type: 3}
    play: {fileID: 21300032, guid: 3dd47e956f5264be6a23058064bd5c1d, type: 3}
  - petBreed: Munchkin
    none: {fileID: 21300050, guid: 3dd47e956f5264be6a23058064bd5c1d, type: 3}
    work: {fileID: 21300056, guid: 3dd47e956f5264be6a23058064bd5c1d, type: 3}
    school: {fileID: 21300054, guid: 3dd47e956f5264be6a23058064bd5c1d, type: 3}
    workOut: {fileID: 21300058, guid: 3dd47e956f5264be6a23058064bd5c1d, type: 3}
    play: {fileID: 21300052, guid: 3dd47e956f5264be6a23058064bd5c1d, type: 3}
  - petBreed: Ragdoll
    none: {fileID: 21300070, guid: 3dd47e956f5264be6a23058064bd5c1d, type: 3}
    work: {fileID: 21300074, guid: 3dd47e956f5264be6a23058064bd5c1d, type: 3}
    school: {fileID: 21300072, guid: 3dd47e956f5264be6a23058064bd5c1d, type: 3}
    workOut: {fileID: 21300076, guid: 3dd47e956f5264be6a23058064bd5c1d, type: 3}
    play: {fileID: 21300078, guid: 3dd47e956f5264be6a23058064bd5c1d, type: 3}
  - petBreed: Bombay
    none: {fileID: 21300020, guid: 3dd47e956f5264be6a23058064bd5c1d, type: 3}
    work: {fileID: 21300026, guid: 3dd47e956f5264be6a23058064bd5c1d, type: 3}
    school: {fileID: 21300024, guid: 3dd47e956f5264be6a23058064bd5c1d, type: 3}
    workOut: {fileID: 21300028, guid: 3dd47e956f5264be6a23058064bd5c1d, type: 3}
    play: {fileID: 21300022, guid: 3dd47e956f5264be6a23058064bd5c1d, type: 3}
