%YAML 1.1
%TAG !u! tag:unity3d.com,2011:
--- !u!114 &11400000
MonoBehaviour:
  m_ObjectHideFlags: 0
  m_PrefabParentObject: {fileID: 0}
  m_PrefabInternal: {fileID: 0}
  m_GameObject: {fileID: 0}
  m_Enabled: 1
  m_EditorHideFlags: 0
  m_Script: {fileID: 11500000, guid: a6b194f808b1af6499c93410e504af42, type: 3}
  m_Name: Husky_Atlas
  m_EditorClassIdentifier: 
  atlasFile: {fileID: 4900000, guid: ee2f80e818067489a83ed10ae8377ab4, type: 3}
  materials:
  - {fileID: 2100000, guid: 3400d0466188f4aab847d4e9d389a4cd, type: 2}
  - {fileID: 2100000, guid: 9e1feb5fb9a274794b321d7acbddeba3, type: 2}
